{
    "total_count": 2301679,
    "incomplete_results": false,
    "items": [
              {
              "id": 29028775,
              "name": "react-native",
              "full_name": "facebook/react-native",
              "owner": {
              "login": "facebook",
              "id": 69631,
              "avatar_url": "https://avatars.githubusercontent.com/u/69631?v=3",
              "gravatar_id": "",
              "url": "https://api.github.com/users/facebook",
              "html_url": "https://github.com/facebook",
              "followers_url": "https://api.github.com/users/facebook/followers",
              "following_url": "https://api.github.com/users/facebook/following{/other_user}",
              "gists_url": "https://api.github.com/users/facebook/gists{/gist_id}",
              "starred_url": "https://api.github.com/users/facebook/starred{/owner}{/repo}",
              "subscriptions_url": "https://api.github.com/users/facebook/subscriptions",
              "organizations_url": "https://api.github.com/users/facebook/orgs",
              "repos_url": "https://api.github.com/users/facebook/repos",
              "events_url": "https://api.github.com/users/facebook/events{/privacy}",
              "received_events_url": "https://api.github.com/users/facebook/received_events",
              "type": "Organization",
              "site_admin": false
              },
              "private": false,
              "html_url": "https://github.com/facebook/react-native",
              "description": "A framework for building native apps with React.",
              "fork": false,
              "url": "https://api.github.com/repos/facebook/react-native",
              "forks_url": "https://api.github.com/repos/facebook/react-native/forks",
              "keys_url": "https://api.github.com/repos/facebook/react-native/keys{/key_id}",
              "collaborators_url": "https://api.github.com/repos/facebook/react-native/collaborators{/collaborator}",
              "teams_url": "https://api.github.com/repos/facebook/react-native/teams",
              "hooks_url": "https://api.github.com/repos/facebook/react-native/hooks",
              "issue_events_url": "https://api.github.com/repos/facebook/react-native/issues/events{/number}",
              "events_url": "https://api.github.com/repos/facebook/react-native/events",
              "assignees_url": "https://api.github.com/repos/facebook/react-native/assignees{/user}",
              "branches_url": "https://api.github.com/repos/facebook/react-native/branches{/branch}",
              "tags_url": "https://api.github.com/repos/facebook/react-native/tags",
              "blobs_url": "https://api.github.com/repos/facebook/react-native/git/blobs{/sha}",
              "git_tags_url": "https://api.github.com/repos/facebook/react-native/git/tags{/sha}",
              "git_refs_url": "https://api.github.com/repos/facebook/react-native/git/refs{/sha}",
              "trees_url": "https://api.github.com/repos/facebook/react-native/git/trees{/sha}",
              "statuses_url": "https://api.github.com/repos/facebook/react-native/statuses/{sha}",
              "languages_url": "https://api.github.com/repos/facebook/react-native/languages",
              "stargazers_url": "https://api.github.com/repos/facebook/react-native/stargazers",
              "contributors_url": "https://api.github.com/repos/facebook/react-native/contributors",
              "subscribers_url": "https://api.github.com/repos/facebook/react-native/subscribers",
              "subscription_url": "https://api.github.com/repos/facebook/react-native/subscription",
              "commits_url": "https://api.github.com/repos/facebook/react-native/commits{/sha}",
              "git_commits_url": "https://api.github.com/repos/facebook/react-native/git/commits{/sha}",
              "comments_url": "https://api.github.com/repos/facebook/react-native/comments{/number}",
              "issue_comment_url": "https://api.github.com/repos/facebook/react-native/issues/comments{/number}",
              "contents_url": "https://api.github.com/repos/facebook/react-native/contents/{+path}",
              "compare_url": "https://api.github.com/repos/facebook/react-native/compare/{base}...{head}",
              "merges_url": "https://api.github.com/repos/facebook/react-native/merges",
              "archive_url": "https://api.github.com/repos/facebook/react-native/{archive_format}{/ref}",
              "downloads_url": "https://api.github.com/repos/facebook/react-native/downloads",
              "issues_url": "https://api.github.com/repos/facebook/react-native/issues{/number}",
              "pulls_url": "https://api.github.com/repos/facebook/react-native/pulls{/number}",
              "milestones_url": "https://api.github.com/repos/facebook/react-native/milestones{/number}",
              "notifications_url": "https://api.github.com/repos/facebook/react-native/notifications{?since,all,participating}",
              "labels_url": "https://api.github.com/repos/facebook/react-native/labels{/name}",
              "releases_url": "https://api.github.com/repos/facebook/react-native/releases{/id}",
              "deployments_url": "https://api.github.com/repos/facebook/react-native/deployments",
              "created_at": "2015-01-09T18:10:16Z",
              "updated_at": "2016-09-17T18:54:35Z",
              "pushed_at": "2016-09-17T17:51:51Z",
              "git_url": "git://github.com/facebook/react-native.git",
              "ssh_url": "git@github.com:facebook/react-native.git",
              "clone_url": "https://github.com/facebook/react-native.git",
              "svn_url": "https://github.com/facebook/react-native",
              "homepage": "http://facebook.github.io/react-native/",
              "size": 131187,
              "stargazers_count": 37694,
              "watchers_count": 37694,
              "language": "Java",
              "has_issues": true,
              "has_downloads": true,
              "has_wiki": true,
              "has_pages": true,
              "forks_count": 8339,
              "mirror_url": null,
              "open_issues_count": 1235,
              "forks": 8339,
              "open_issues": 1235,
              "watchers": 37694,
              "default_branch": "master",
              "score": 1.0
              },
              {
              "id": 507775,
              "name": "elasticsearch",
              "full_name": "elastic/elasticsearch",
              "owner": {
              "login": "elastic",
              "id": 6764390,
              "avatar_url": "https://avatars.githubusercontent.com/u/6764390?v=3",
              "gravatar_id": "",
              "url": "https://api.github.com/users/elastic",
              "html_url": "https://github.com/elastic",
              "followers_url": "https://api.github.com/users/elastic/followers",
              "following_url": "https://api.github.com/users/elastic/following{/other_user}",
              "gists_url": "https://api.github.com/users/elastic/gists{/gist_id}",
              "starred_url": "https://api.github.com/users/elastic/starred{/owner}{/repo}",
              "subscriptions_url": "https://api.github.com/users/elastic/subscriptions",
              "organizations_url": "https://api.github.com/users/elastic/orgs",
              "repos_url": "https://api.github.com/users/elastic/repos",
              "events_url": "https://api.github.com/users/elastic/events{/privacy}",
              "received_events_url": "https://api.github.com/users/elastic/received_events",
              "type": "Organization",
              "site_admin": false
              },
              "private": false,
              "html_url": "https://github.com/elastic/elasticsearch",
              "description": "Open Source, Distributed, RESTful Search Engine",
              "fork": false,
              "url": "https://api.github.com/repos/elastic/elasticsearch",
              "forks_url": "https://api.github.com/repos/elastic/elasticsearch/forks",
              "keys_url": "https://api.github.com/repos/elastic/elasticsearch/keys{/key_id}",
              "collaborators_url": "https://api.github.com/repos/elastic/elasticsearch/collaborators{/collaborator}",
              "teams_url": "https://api.github.com/repos/elastic/elasticsearch/teams",
              "hooks_url": "https://api.github.com/repos/elastic/elasticsearch/hooks",
              "issue_events_url": "https://api.github.com/repos/elastic/elasticsearch/issues/events{/number}",
              "events_url": "https://api.github.com/repos/elastic/elasticsearch/events",
              "assignees_url": "https://api.github.com/repos/elastic/elasticsearch/assignees{/user}",
              "branches_url": "https://api.github.com/repos/elastic/elasticsearch/branches{/branch}",
              "tags_url": "https://api.github.com/repos/elastic/elasticsearch/tags",
              "blobs_url": "https://api.github.com/repos/elastic/elasticsearch/git/blobs{/sha}",
              "git_tags_url": "https://api.github.com/repos/elastic/elasticsearch/git/tags{/sha}",
              "git_refs_url": "https://api.github.com/repos/elastic/elasticsearch/git/refs{/sha}",
              "trees_url": "https://api.github.com/repos/elastic/elasticsearch/git/trees{/sha}",
              "statuses_url": "https://api.github.com/repos/elastic/elasticsearch/statuses/{sha}",
              "languages_url": "https://api.github.com/repos/elastic/elasticsearch/languages",
              "stargazers_url": "https://api.github.com/repos/elastic/elasticsearch/stargazers",
              "contributors_url": "https://api.github.com/repos/elastic/elasticsearch/contributors",
              "subscribers_url": "https://api.github.com/repos/elastic/elasticsearch/subscribers",
              "subscription_url": "https://api.github.com/repos/elastic/elasticsearch/subscription",
              "commits_url": "https://api.github.com/repos/elastic/elasticsearch/commits{/sha}",
              "git_commits_url": "https://api.github.com/repos/elastic/elasticsearch/git/commits{/sha}",
              "comments_url": "https://api.github.com/repos/elastic/elasticsearch/comments{/number}",
              "issue_comment_url": "https://api.github.com/repos/elastic/elasticsearch/issues/comments{/number}",
              "contents_url": "https://api.github.com/repos/elastic/elasticsearch/contents/{+path}",
              "compare_url": "https://api.github.com/repos/elastic/elasticsearch/compare/{base}...{head}",
              "merges_url": "https://api.github.com/repos/elastic/elasticsearch/merges",
              "archive_url": "https://api.github.com/repos/elastic/elasticsearch/{archive_format}{/ref}",
              "downloads_url": "https://api.github.com/repos/elastic/elasticsearch/downloads",
              "issues_url": "https://api.github.com/repos/elastic/elasticsearch/issues{/number}",
              "pulls_url": "https://api.github.com/repos/elastic/elasticsearch/pulls{/number}",
              "milestones_url": "https://api.github.com/repos/elastic/elasticsearch/milestones{/number}",
              "notifications_url": "https://api.github.com/repos/elastic/elasticsearch/notifications{?since,all,participating}",
              "labels_url": "https://api.github.com/repos/elastic/elasticsearch/labels{/name}",
              "releases_url": "https://api.github.com/repos/elastic/elasticsearch/releases{/id}",
              "deployments_url": "https://api.github.com/repos/elastic/elasticsearch/deployments",
              "created_at": "2010-02-08T13:20:56Z",
              "updated_at": "2016-09-17T09:56:43Z",
              "pushed_at": "2016-09-17T17:07:51Z",
              "git_url": "git://github.com/elastic/elasticsearch.git",
              "ssh_url": "git@github.com:elastic/elasticsearch.git",
              "clone_url": "https://github.com/elastic/elasticsearch.git",
              "svn_url": "https://github.com/elastic/elasticsearch",
              "homepage": "https://www.elastic.co/products/elasticsearch",
              "size": 350443,
              "stargazers_count": 18418,
              "watchers_count": 18418,
              "language": "Java",
              "has_issues": true,
              "has_downloads": true,
              "has_wiki": false,
              "has_pages": false,
              "forks_count": 6271,
              "mirror_url": null,
              "open_issues_count": 1113,
              "forks": 6271,
              "open_issues": 1113,
              "watchers": 18418,
              "default_branch": "master",
              "score": 1.0
              },
              {
              "id": 7508411,
              "name": "RxJava",
              "full_name": "ReactiveX/RxJava",
              "owner": {
              "login": "ReactiveX",
              "id": 6407041,
              "avatar_url": "https://avatars.githubusercontent.com/u/6407041?v=3",
              "gravatar_id": "",
              "url": "https://api.github.com/users/ReactiveX",
              "html_url": "https://github.com/ReactiveX",
              "followers_url": "https://api.github.com/users/ReactiveX/followers",
              "following_url": "https://api.github.com/users/ReactiveX/following{/other_user}",
              "gists_url": "https://api.github.com/users/ReactiveX/gists{/gist_id}",
              "starred_url": "https://api.github.com/users/ReactiveX/starred{/owner}{/repo}",
              "subscriptions_url": "https://api.github.com/users/ReactiveX/subscriptions",
              "organizations_url": "https://api.github.com/users/ReactiveX/orgs",
              "repos_url": "https://api.github.com/users/ReactiveX/repos",
              "events_url": "https://api.github.com/users/ReactiveX/events{/privacy}",
              "received_events_url": "https://api.github.com/users/ReactiveX/received_events",
              "type": "Organization",
              "site_admin": false
              },
              "private": false,
              "html_url": "https://github.com/ReactiveX/RxJava",
              "description": "RxJava – Reactive Extensions for the JVM – a library for composing asynchronous and event-based programs using observable sequences for the Java VM.",
              "fork": false,
              "url": "https://api.github.com/repos/ReactiveX/RxJava",
              "forks_url": "https://api.github.com/repos/ReactiveX/RxJava/forks",
              "keys_url": "https://api.github.com/repos/ReactiveX/RxJava/keys{/key_id}",
              "collaborators_url": "https://api.github.com/repos/ReactiveX/RxJava/collaborators{/collaborator}",
              "teams_url": "https://api.github.com/repos/ReactiveX/RxJava/teams",
              "hooks_url": "https://api.github.com/repos/ReactiveX/RxJava/hooks",
              "issue_events_url": "https://api.github.com/repos/ReactiveX/RxJava/issues/events{/number}",
              "events_url": "https://api.github.com/repos/ReactiveX/RxJava/events",
              "assignees_url": "https://api.github.com/repos/ReactiveX/RxJava/assignees{/user}",
              "branches_url": "https://api.github.com/repos/ReactiveX/RxJava/branches{/branch}",
              "tags_url": "https://api.github.com/repos/ReactiveX/RxJava/tags",
              "blobs_url": "https://api.github.com/repos/ReactiveX/RxJava/git/blobs{/sha}",
              "git_tags_url": "https://api.github.com/repos/ReactiveX/RxJava/git/tags{/sha}",
              "git_refs_url": "https://api.github.com/repos/ReactiveX/RxJava/git/refs{/sha}",
              "trees_url": "https://api.github.com/repos/ReactiveX/RxJava/git/trees{/sha}",
              "statuses_url": "https://api.github.com/repos/ReactiveX/RxJava/statuses/{sha}",
              "languages_url": "https://api.github.com/repos/ReactiveX/RxJava/languages",
              "stargazers_url": "https://api.github.com/repos/ReactiveX/RxJava/stargazers",
              "contributors_url": "https://api.github.com/repos/ReactiveX/RxJava/contributors",
              "subscribers_url": "https://api.github.com/repos/ReactiveX/RxJava/subscribers",
              "subscription_url": "https://api.github.com/repos/ReactiveX/RxJava/subscription",
              "commits_url": "https://api.github.com/repos/ReactiveX/RxJava/commits{/sha}",
              "git_commits_url": "https://api.github.com/repos/ReactiveX/RxJava/git/commits{/sha}",
              "comments_url": "https://api.github.com/repos/ReactiveX/RxJava/comments{/number}",
              "issue_comment_url": "https://api.github.com/repos/ReactiveX/RxJava/issues/comments{/number}",
              "contents_url": "https://api.github.com/repos/ReactiveX/RxJava/contents/{+path}",
              "compare_url": "https://api.github.com/repos/ReactiveX/RxJava/compare/{base}...{head}",
              "merges_url": "https://api.github.com/repos/ReactiveX/RxJava/merges",
              "archive_url": "https://api.github.com/repos/ReactiveX/RxJava/{archive_format}{/ref}",
              "downloads_url": "https://api.github.com/repos/ReactiveX/RxJava/downloads",
              "issues_url": "https://api.github.com/repos/ReactiveX/RxJava/issues{/number}",
              "pulls_url": "https://api.github.com/repos/ReactiveX/RxJava/pulls{/number}",
              "milestones_url": "https://api.github.com/repos/ReactiveX/RxJava/milestones{/number}",
              "notifications_url": "https://api.github.com/repos/ReactiveX/RxJava/notifications{?since,all,participating}",
              "labels_url": "https://api.github.com/repos/ReactiveX/RxJava/labels{/name}",
              "releases_url": "https://api.github.com/repos/ReactiveX/RxJava/releases{/id}",
              "deployments_url": "https://api.github.com/repos/ReactiveX/RxJava/deployments",
              "created_at": "2013-01-08T20:11:48Z",
              "updated_at": "2016-09-17T18:21:40Z",
              "pushed_at": "2016-09-17T13:24:53Z",
              "git_url": "git://github.com/ReactiveX/RxJava.git",
              "ssh_url": "git@github.com:ReactiveX/RxJava.git",
              "clone_url": "https://github.com/ReactiveX/RxJava.git",
              "svn_url": "https://github.com/ReactiveX/RxJava",
              "homepage": "",
              "size": 42688,
              "stargazers_count": 17095,
              "watchers_count": 17095,
              "language": "Java",
              "has_issues": true,
              "has_downloads": true,
              "has_wiki": true,
              "has_pages": true,
              "forks_count": 2995,
              "mirror_url": null,
              "open_issues_count": 55,
              "forks": 2995,
              "open_issues": 55,
              "watchers": 17095,
              "default_branch": "1.x",
              "score": 1.0
              }
              ]
}